{
  "001": [
    "u1_20180505_1652_i00",
    "u1_20180505_1653_i00",
    "u1_20180505_1653_i01",
    "u1_20180505_1653_i02",
    "u1_20180505_1654_i00",
    "u1_20180505_1654_i01",
    "u1_20180507_1516_i01",
    "u1_20180507_1517_i00",
    "u1_20180507_1517_i01",
    "u1_20180507_1517_i02",
    "u1_20180507_1518_i00",
    "u1_20180507_1518_i01",
    "u1_20180507_1519_i00",
    "u1_20180507_1519_i01",
    "u1_20180507_1519_i02",
    "u1_20180507_1520_i01",
    "u1_20180507_1521_i00",
    "u1_20180507_1521_i01",
    "u1_20180507_1521_i02",
    "u1_20180507_1522_i00",
    "u1_20180507_1522_i01",
    "u1_20180507_1523_i00",
    "u1_20180507_1523_i01",
    "u1_20180507_1523_i02"
  ],
  "002": [
    "u1_20180530_1858_i00",
    "u1_20180528_1619_i00",
    "u1_20180519_1854_i01",
    "u1_20180516_1909_i01",
    "u1_20180515_1734_i01",
    "u1_20180510_1535_i01",
    "u1_20180510_1536_i00",
    "u1_20180511_1742_i00",
    "u1_20180511_1742_i01",
    "u1_20180506_1834_i00",
    "u1_20180506_1834_i01",
    "u1_20180506_1835_i00",
    "u1_20180509_1643_i02",
    "u1_20180509_1644_i00",
    "u1_20180509_1644_i01"
  ],
  "003": [
    "u1_20180505_1029_i01",
    "u1_20180506_0650_i01",
    "u1_20180507_1126_i01",
    "u1_20180510_1652_i02",
    "u1_20180511_0817_i01",
    "u1_20180512_1321_i01",
    "u1_20180513_0754_i02",
    "u1_20180514_1706_i01",
    "u1_20180519_1116_i00",
    "u1_20180520_0608_i00",
    "u1_20180526_1349_i02",
    "u1_20180527_0810_i00",
    "u1_20180529_1713_i00",
    "u1_20180530_1930_i00",
    "u1_20180520_0613_i00",
    "u1_20180514_2249_i01",
    "u1_20180503_0624_i01",
    "u1_20180513_1039_i01",
    "u1_20180509_1625_i01",
    "u1_20180526_1451_i01",
    "u1_20180505_1126_i01",
    "u1_20180505_1135_i02",
    "u1_20180505_1556_i01",
    "u1_20180506_0713_i00",
    "u1_20180506_0722_i00",
    "u1_20180506_0730_i01",
    "u1_20180519_1116_i01",
    "u1_20180519_1117_i00",
    "u1_20180528_1637_i01",
    "u1_20180529_0544_i01",
    "u1_20180512_1052_i00",
    "u1_20180512_1055_i00",
    "u1_20180512_1143_i00",
    "u1_20180507_0649_i00"
  ],
  "004": [
    "u1_20180512_1609_i00",
    "u1_20180512_1613_i01",
    "u1_20180512_1614_i00",
    "u1_20180526_1928_i02",
    "u1_20180526_1929_i02",
    "u1_20180526_1929_i00",
    "u1_20180528_1937_i00",
    "u1_20180528_1937_i01",
    "u1_20180528_1937_i02",
    "u1_20180512_1614_i01",
    "u1_20180512_1619_i02",
    "u1_20180512_1620_i00",
    "u1_20180512_1620_i01",
    "u1_20180512_1621_i02",
    "u1_20180512_1621_i00",
    "u1_20180512_1621_i01",
    "u1_20180512_1627_i02",
    "u1_20180512_1627_i00",
    "u1_20180512_1627_i01",
    "u1_20180512_1628_i01",
    "u1_20180512_1628_i00",
    "u1_20180512_1629_i00",
    "u1_20180512_1629_i01",
    "u1_20180512_1630_i00",
    "u1_20180512_1630_i01",
    "u1_20180512_1630_i02",
    "u1_20180512_1631_i01",
    "u1_20180512_1631_i00",
    "u1_20180512_1632_i00",
    "u1_20180512_1632_i01",
    "u1_20180512_1633_i01",
    "u1_20180512_1633_i00",
    "u1_20180512_1634_i02",
    "u1_20180512_1634_i00",
    "u1_20180512_1634_i01",
    "u1_20180512_1635_i00",
    "u1_20180512_1635_i01",
    "u1_20180512_1636_i01",
    "u1_20180512_1643_i01",
    "u1_20180512_1649_i02",
    "u1_20180512_1649_i00",
    "u1_20180512_1650_i00",
    "u1_20180512_1650_i01",
    "u1_20180512_1651_i02",
    "u1_20180512_1651_i00",
    "u1_20180512_1651_i01",
    "u1_20180512_1652_i01",
    "u1_20180512_1652_i02",
    "u1_20180512_1652_i00",
    "u1_20180512_1653_i00",
    "u1_20180512_1653_i01",
    "u1_20180512_1654_i02",
    "u1_20180512_1654_i01",
    "u1_20180512_1654_i00",
    "u1_20180512_1655_i01",
    "u1_20180512_1655_i00",
    "u1_20180512_1655_i02",
    "u1_20180512_1656_i00",
    "u1_20180512_1656_i01",
    "u1_20180512_1657_i00",
    "u1_20180512_1657_i01",
    "u1_20180512_1657_i02",
    "u1_20180512_1658_i00",
    "u1_20180512_1658_i01",
    "u1_20180512_1659_i01",
    "u1_20180512_1659_i00",
    "u1_20180512_1700_i01",
    "u1_20180512_1700_i00",
    "u1_20180512_1701_i00",
    "u1_20180512_1701_i01",
    "u1_20180512_1702_i01",
    "u1_20180512_1702_i00",
    "u1_20180512_1708_i00",
    "u1_20180512_1708_i02",
    "u1_20180512_1708_i01",
    "u1_20180512_1709_i01",
    "u1_20180512_1709_i00",
    "u1_20180512_1710_i00",
    "u1_20180512_1710_i01",
    "u1_20180512_1711_i01",
    "u1_20180512_1711_i00",
    "u1_20180512_1712_i01",
    "u1_20180512_1712_i00",
    "u1_20180512_1713_i01",
    "u1_20180512_1713_i00",
    "u1_20180512_1714_i00",
    "u1_20180512_1714_i02",
    "u1_20180512_1714_i01",
    "u1_20180512_1715_i01",
    "u1_20180512_1715_i00",
    "u1_20180512_1716_i00",
    "u1_20180512_1716_i01",
    "u1_20180512_1717_i01",
    "u1_20180512_1717_i00",
    "u1_20180512_1718_i01",
    "u1_20180512_1718_i00",
    "u1_20180512_1718_i02",
    "u1_20180512_1719_i01",
    "u1_20180512_1719_i00",
    "u1_20180512_1720_i00",
    "u1_20180512_1721_i01",
    "u1_20180512_1721_i00",
    "u1_20180512_1722_i01",
    "u1_20180512_1722_i00",
    "u1_20180512_1723_i01",
    "u1_20180512_1723_i00",
    "u1_20180512_1724_i00",
    "u1_20180512_1724_i01",
    "u1_20180512_1725_i00",
    "u1_20180512_1725_i01",
    "u1_20180512_1726_i00",
    "u1_20180512_1727_i01",
    "u1_20180512_1727_i00",
    "u1_20180512_1728_i00",
    "u1_20180512_1728_i01",
    "u1_20180512_1730_i01",
    "u1_20180512_1730_i00",
    "u1_20180512_1731_i01",
    "u1_20180512_1731_i00",
    "u1_20180512_1732_i02",
    "u1_20180512_1732_i00",
    "u1_20180512_1732_i01",
    "u1_20180512_1733_i01",
    "u1_20180512_1734_i01",
    "u1_20180512_1734_i02",
    "u1_20180512_1734_i00",
    "u1_20180512_1735_i00",
    "u1_20180512_1735_i01",
    "u1_20180512_1735_i02",
    "u1_20180512_1736_i00",
    "u1_20180512_1736_i01",
    "u1_20180512_1737_i01",
    "u1_20180512_1737_i00",
    "u1_20180512_1738_i01",
    "u1_20180526_1910_i01",
    "u1_20180526_1911_i00",
    "u1_20180526_1912_i00",
    "u1_20180528_1925_i00",
    "u1_20180528_1925_i01",
    "u1_20180528_1926_i00",
    "u1_20180528_1926_i01",
    "u1_20180528_1927_i01",
    "u1_20180528_1927_i00",
    "u1_20180528_1928_i00",
    "u1_20180528_1929_i01",
    "u1_20180528_1930_i00",
    "u1_20180528_1931_i00",
    "u1_20180528_1931_i02",
    "u1_20180528_1932_i01",
    "u1_20180528_1932_i00",
    "u1_20180528_1933_i01",
    "u1_20180528_1933_i00",
    "u1_20180528_1934_i00",
    "u1_20180528_1934_i02",
    "u1_20180528_1935_i01",
    "u1_20180528_1936_i00",
    "u1_20180528_1936_i01",
    "u1_20180528_1941_i01",
    "u1_20180528_1942_i01",
    "u1_20180528_1942_i00",
    "u1_20180528_1943_i01",
    "u1_20180528_1943_i02",
    "u1_20180528_1943_i00",
    "u1_20180528_1944_i00",
    "u1_20180512_1609_i01",
    "u1_20180512_1610_i00",
    "u1_20180512_1610_i02",
    "u1_20180512_1610_i01",
    "u1_20180512_1611_i01",
    "u1_20180512_1611_i02",
    "u1_20180512_1612_i01",
    "u1_20180512_1612_i00",
    "u1_20180512_1622_i00",
    "u1_20180512_1702_i02",
    "u1_20180512_1703_i00",
    "u1_20180512_1703_i01",
    "u1_20180512_1704_i00",
    "u1_20180512_1704_i01",
    "u1_20180512_1704_i02",
    "u1_20180512_1705_i01",
    "u1_20180512_1705_i00",
    "u1_20180512_1706_i02",
    "u1_20180512_1706_i01",
    "u1_20180512_1706_i00",
    "u1_20180512_1729_i01",
    "u1_20180512_1729_i00",
    "u1_20180512_1730_i02",
    "u1_20180512_1739_i00",
    "u1_20180512_1739_i02",
    "u1_20180512_1740_i00",
    "u1_20180512_1740_i02",
    "u1_20180512_1740_i01",
    "u1_20180512_1745_i02",
    "u1_20180512_1745_i01",
    "u1_20180512_1746_i02",
    "u1_20180512_1749_i00",
    "u1_20180512_1750_i00",
    "u1_20180512_1750_i01",
    "u1_20180526_1915_i00",
    "u1_20180526_1916_i00",
    "u1_20180526_1916_i01",
    "u1_20180526_1916_i02",
    "u1_20180526_1917_i01",
    "u1_20180526_1917_i00",
    "u1_20180526_1918_i01",
    "u1_20180526_1923_i00",
    "u1_20180526_1926_i00",
    "u1_20180526_1926_i01",
    "u1_20180526_1927_i01",
    "u1_20180526_1927_i00",
    "u1_20180526_1928_i01",
    "u1_20180526_1928_i00",
    "u1_20180526_1929_i01",
    "u1_20180526_1930_i00",
    "u1_20180526_1930_i01",
    "u1_20180526_1931_i00",
    "u1_20180526_1931_i02",
    "u1_20180526_1931_i01",
    "u1_20180526_1932_i00",
    "u1_20180526_1932_i01",
    "u1_20180526_1933_i00",
    "u1_20180526_1933_i02",
    "u1_20180526_1933_i01",
    "u1_20180526_1934_i02",
    "u1_20180526_1934_i00",
    "u1_20180526_1935_i00",
    "u1_20180526_1935_i01",
    "u1_20180526_1938_i01",
    "u1_20180526_1938_i00",
    "u1_20180526_1939_i00",
    "u1_20180526_1940_i00",
    "u1_20180526_1941_i00",
    "u1_20180526_1941_i01",
    "u1_20180526_1942_i02",
    "u1_20180526_1947_i02",
    "u1_20180526_1947_i00",
    "u1_20180526_1948_i01",
    "u1_20180526_1949_i01",
    "u1_20180526_1949_i00",
    "u1_20180526_1950_i02",
    "u1_20180526_1950_i01",
    "u1_20180526_1950_i00",
    "u1_20180526_1951_i01",
    "u1_20180526_1951_i00",
    "u1_20180526_1952_i01",
    "u1_20180526_1952_i00",
    "u1_20180526_1953_i02",
    "u1_20180526_1953_i00",
    "u1_20180526_1953_i01",
    "u1_20180526_1954_i01",
    "u1_20180526_1954_i02",
    "u1_20180526_1954_i00",
    "u1_20180526_1955_i00",
    "u1_20180526_1955_i01"
  ],
  "005": [
    "u1_20180520_1213_cam_i00",
    "u1_20180527_1003_i00",
    "u1_20180528_1211_i00",
    "u1_20180505_0836_i00",
    "u1_20180504_1529_i01",
    "u1_20180505_0755_i02",
    "u1_20180519_0739_i01",
    "u1_20180519_0915_i01",
    "u1_20180530_0723_i01",
    "u1_20180504_0950_i01",
    "u1_20180504_1558_i00",
    "u1_20180524_0232_i05",
    "u1_20180504_0948_i02",
    "u1_20180504_0948_i00",
    "u1_20180504_0949_i01",
    "u1_20180504_0949_i00",
    "u1_20180504_0950_i00",
    "u1_20180504_0950_i02",
    "u1_20180504_0951_i01",
    "u1_20180504_0952_i00",
    "u1_20180504_0952_i02",
    "u1_20180504_0953_i02",
    "u1_20180509_1303_i01",
    "u1_20180504_1620_i00",
    "u1_20180509_1323_i02"
  ],
  "007": [
    "u1_20180504_1558_i01",
    "u1_20180504_1544_i00",
    "u1_20180504_1549_i01",
    "u1_20180504_1558_i00",
    "u1_20180504_1552_i01",
    "u1_20180504_1552_i02",
    "u1_20180504_1559_i00",
    "u1_20180504_1604_i00",
    "u1_20180504_1607_i01",
    "u1_20180504_1554_i00",
    "u1_20180504_1620_i00",
    "u1_20180504_1657_i01",
    "u1_20180504_1604_i01",
    "u1_20180504_1515_i01",
    "u1_20180504_1621_i02",
    "u1_20180504_1637_i01",
    "u1_20180504_1656_i00",
    "u1_20180504_1704_i01",
    "u1_20180504_1706_i01",
    "u1_20180504_1708_i02",
    "u1_20180504_1654_i01",
    "u1_20180504_1655_i01",
    "u1_20180504_1657_i00",
    "u1_20180504_1656_i02",
    "u1_20180504_1656_i01",
    "u1_20180504_1701_i01",
    "u1_20180504_1702_i00",
    "u1_20180504_1559_i01",
    "u1_20180504_1544_i00",
    "u1_20180504_1551_i01",
    "u1_20180504_1551_i00",
    "u1_20180504_1553_i02",
    "u1_20180504_1557_i01",
    "u1_20180504_1556_i01",
    "u1_20180504_1559_i02",
    "u1_20180504_1600_i00",
    "u1_20180504_1600_i01",
    "u1_20180504_1600_i02",
    "u1_20180504_1601_i00",
    "u1_20180504_1601_i01",
    "u1_20180504_1603_i00",
    "u1_20180504_1602_i02",
    "u1_20180504_1602_i01",
    "u1_20180504_1602_i00",
    "u1_20180504_1604_i02",
    "u1_20180504_1609_i01",
    "u1_20180504_1605_i00",
    "u1_20180504_1610_i01",
    "u1_20180504_1610_i00",
    "u1_20180504_1605_i01",
    "u1_20180504_1607_i00",
    "u1_20180504_1610_i02",
    "u1_20180504_1608_i00",
    "u1_20180504_1611_i00",
    "u1_20180504_1609_i00",
    "u1_20180504_1611_i01",
    "u1_20180504_1615_i00",
    "u1_20180504_1614_i02",
    "u1_20180504_1613_i00",
    "u1_20180504_1612_i02",
    "u1_20180504_1612_i01",
    "u1_20180504_1612_i00",
    "u1_20180504_1618_i01",
    "u1_20180504_1619_i01",
    "u1_20180504_1619_i02",
    "u1_20180504_1629_i00",
    "u1_20180504_1621_i01",
    "u1_20180504_1622_i00",
    "u1_20180504_1631_i01",
    "u1_20180504_1625_i00",
    "u1_20180504_1628_i01",
    "u1_20180504_1623_i02",
    "u1_20180504_1623_i01",
    "u1_20180504_1631_i02",
    "u1_20180504_1632_i00",
    "u1_20180504_1632_i02",
    "u1_20180504_1632_i01",
    "u1_20180504_1633_i00",
    "u1_20180504_1634_i01",
    "u1_20180504_1638_i00",
    "u1_20180504_1637_i02",
    "u1_20180504_1636_i01",
    "u1_20180504_1636_i00",
    "u1_20180504_1635_i01",
    "u1_20180504_1635_i00",
    "u1_20180504_1639_i00",
    "u1_20180504_1639_i01",
    "u1_20180504_1642_i00",
    "u1_20180504_1642_i02",
    "u1_20180504_1640_i00",
    "u1_20180504_1641_i00",
    "u1_20180504_1644_i01",
    "u1_20180504_1641_i01",
    "u1_20180504_1644_i02",
    "u1_20180504_1641_i02",
    "u1_20180504_1645_i00",
    "u1_20180523_1155_i03"
  ],
  "008": [
    "u1_20180507_1802_i01",
    "u1_20180508_1614_i00",
    "u1_20180509_1650_i00",
    "u1_20180512_1811_i02",
    "u1_20180514_0731_i02",
    "u1_20180517_1059_i01",
    "u1_20180521_1337_i00",
    "u1_20180526_1207_i02",
    "u1_20180531_0746_i00",
    "u1_20180512_2032_i08",

    "u1_20180529_1722_i01",
    "u1_20180512_1812_i01",
    "u1_20180514_0754_i01",
    "u1_20180517_0731_i00",
    "u1_20180517_0732_i01",
    "u1_20180517_0731_i01",
    "u1_20180517_0734_i00",
    "u1_20180531_0747_i00",
    "u1_20180531_0747_i01",
    "u1_20180531_0753_i02",
    "u1_20180531_0753_i00",
    "u1_20180531_0753_i01",
    "u1_20180531_0753_i07",
    "u1_20180531_0753_i03",
    "u1_20180531_0755_i00",
    "u1_20180531_0754_i01",
    "u1_20180531_0755_i02",
    "u1_20180531_1842_i02",
    "u1_20180531_1842_i01",
    "u1_20180531_1840_i00",
    "u1_20180531_1840_i01",
    "u1_20180531_1841_i01",
    "u1_20180531_1842_i00",
    "u1_20180507_0809_i01",
    "u1_20180507_1346_i01",
    "u1_20180507_1344_i01",
    "u1_20180507_1759_i00",
    "u1_20180507_1759_i01",
    "u1_20180507_1800_i00",
    "u1_20180507_1800_i01",
    "u1_20180507_1800_i02",
    "u1_20180507_1801_i00",
    "u1_20180507_2015_i00",
    "u1_20180512_1817_i02",
    "u1_20180512_1816_i06",
    "u1_20180512_1820_i02",
    "u1_20180512_1820_i03",
    "u1_20180512_1820_i04",
    "u1_20180512_1821_i00",
    "u1_20180512_1819_i00",
    "u1_20180512_1818_i00",
    "u1_20180512_1819_i01",
    "u1_20180512_1821_i01",
    "u1_20180512_1821_i02",
    "u1_20180512_1820_i00",
    "u1_20180512_2032_i07",
    "u1_20180512_2033_i02",
    "u1_20180512_2033_i04",
    "u1_20180512_2034_i01",
    "u1_20180512_2034_i03",
    "u1_20180512_2034_i00",
    "u1_20180512_2009_i01",
    "u1_20180513_1418_i00",
    "u1_20180514_0744_i01",
    "u1_20180514_0742_i00",
    "u1_20180514_0742_i01",
    "u1_20180514_0745_i00",
    "u1_20180514_0751_i00",
    "u1_20180514_0753_i02",
    "u1_20180514_0753_i01",
    "u1_20180514_0750_i02",
    "u1_20180514_0751_i01",
    "u1_20180514_0754_i00",
    "u1_20180514_1540_i05",
    "u1_20180514_1540_i08",
    "u1_20180514_1540_i03",
    "u1_20180514_1540_i01",
    "u1_20180514_1607_i02",
    "u1_20180514_1607_i00",
    "u1_20180514_1607_i03",
    "u1_20180514_1607_i04",
    "u1_20180521_1337_i02",
    "u1_20180531_0859_i01",
    "u1_20180531_0858_i02",
    "u1_20180531_0754_i02",
    "u1_20180531_0753_i06",
    "u1_20180531_0752_i01",
    "u1_20180526_0904_i16"
  ],
  "010": [
    "u1_20180523_0022_i02",
    "u1_20180523_0023_i01",
    "u1_20180523_0022_i03",
    "u1_20180523_0024_i01",
    "u1_20180523_0144_i06",
    "u1_20180523_0145_i02",
    "u1_20180523_0146_i00",
    "u1_20180523_0320_i02",
    "u1_20180523_0319_i01",
    "u1_20180523_0318_i01",
    "u1_20180523_0024_i03",
    "u1_20180523_0022_i05",
    "u1_20180523_0024_i04",
    "u1_20180523_0025_i03",
    "u1_20180523_0050_i02",
    "u1_20180523_0051_i02",
    "u1_20180523_0051_i03",
    "u1_20180523_0052_i00",
    "u1_20180523_0136_i05",
    "u1_20180523_0144_i01",
    "u1_20180523_0103_i05",
    "u1_20180523_0103_i02",
    "u1_20180523_0103_cam_i00",
    "u1_20180523_0103_i01",
    "u1_20180523_0147_i00",
    "u1_20180523_0147_i03",
    "u1_20180523_0149_i02",
    "u1_20180523_0150_i02",
    "u1_20180523_0207_i00",
    "u1_20180523_0151_i01",
    "u1_20180523_0208_i02",
    "u1_20180523_0152_i03",
    "u1_20180523_0216_i01",
    "u1_20180523_0157_cam_i00",
    "u1_20180523_0223_i06",
    "u1_20180523_0224_i05",
    "u1_20180523_0157_i00",
    "u1_20180523_0200_i02",
    "u1_20180523_0225_i01",
    "u1_20180523_0318_i00",
    "u1_20180523_0237_i00",
    "u1_20180523_0225_i02",
    "u1_20180523_0320_i03",
    "u1_20180523_0332_i05"
  ],
  "009": [
    "u1_20180527_0910_i09",
    "u1_20180527_0911_i01",
    "u1_20180527_1332_i00",
    "u1_20180527_1444_i00",
    "u1_20180527_1420_i02",
    "u1_20180527_1350_i02",
    "u1_20180527_1328_i00",
    "u1_20180527_1328_i01",
    "u1_20180527_1329_i00",
    "u1_20180527_1329_i01",
    "u1_20180527_1208_i00",
    "u1_20180527_1202_i00"
  ],
  "006": [
    "u1_20180508_0614_cam_i00",
    "u1_20180509_0626_cam_i00",
    "u1_20180511_0613_cam_i00",
    "u1_20180510_0539_cam_i00",
    "u1_20180513_0756_cam_i00",
    "u1_20180514_0537_cam_i00",
    "u1_20180515_0608_cam_i00",
    "u1_20180516_0555_cam_i00",
    "u1_20180517_0545_cam_i00",
    "u1_20180518_0626_cam_i00",
    "u1_20180519_0627_cam_i00",
    "u1_20180521_0555_cam_i00",
    "u1_20180528_0653_cam_i00",
    "u1_20180529_0552_cam_i00",
    "u1_20180530_0605_cam_i00",
    "u1_20180530_0614_cam_i00",
    "u1_20180504_0620_cam_i00",
    "u1_20180506_0724_cam_i00"
  ]
}